{
  "appenders": [
    {
      "type": "console"
    },
    {
      "type": "file",
      "filename": "logs/app.log",
      "maxLogSize": 10485760,
      "numBackups": 10
    },
    {
      "type": "logLevelFilter",
      "level": "ERROR",
      "appender": {
        "type": "file",
        "filename": "logs/error.log"
      }
    }
  ]
}